[
  "ARMSCII",
  "BIG-5",
  "CP-437",
  "CP-737",
  "CP-775",
  "CP-850",
  "CP-852",
  "CP-853",
  "CP-856",
  "CP-857",
  "CP-858",
  "CP-860",
  "CP-861",
  "CP-862",
  "CP-863",
  "CP-864",
  "CP-865",
  "CP-866",
  "CP-869",
  "CP-922",
  "CP-1046",
  "CP-1124",
  "CP-1125",
  "CP-1129",
  "CP-1131",
  "CP-1133",
  "CP-1161",
  "CP-1162",
  "CP-1163",
  "DOS-720",
  "DOS-862",
  "GB2-312",
  "Georgian-ps",
  "Geostd-",
  "HP_ROMAN8",
  "IBM-855",
  "IBM-866",
  "ISO-646-CN",
  "ISO-8859-1",
  "ISO-8859-2",
  "ISO-8859-3",
  "ISO-8859-4",
  "ISO-8859-5",
  "ISO-8859-6",
  "ISO-8859-7",
  "ISO-8859-8",
  "ISO-8859-9",
  "ISO-8859-10",
  "ISO-8859-13",
  "ISO-8859-14",
  "ISO-8859-15",
  "ISO-2022-JP",
  "ISO-2022-JP-MS",
  "ISO-2022-KR",
  "JISX0201",
  "KOI8-R",
  "KOI8-T",
  "KOI8-U",
  "MacCyrllic",
  "US-ASCII",
  "UTF-8",
  "UTF-16",
  "Windows-874",
  "Windows-1250",
  "Windows-1251",
  "Windows-1251-k",
  "Windows-1251-t",
  "Windows-1252",
  "Windows-1253",
  "Windows-1254",
  "Windows-1255",
  "Windows-1256",
  "Windows-1257",
  "Windows-1258"
]